…
Since `all_content` is a `tibble()`, you can also manipulate it with
dplyr:

    #> # A tibble: 41 x 15
    #>       id guid    name    title   description   app_mode content_category url    
    #>    <int> <chr>   <chr>   <chr>   <chr>         <chr>    <chr>            <chr>  
    #>  1  1890 be63ca… rmd     rmd4    "This rmd is… rmd-sta… ""               https:…
    #>  2  3724 b5e57e… team-d… Team-d… ""            static   ""               https:…
    #>  3  3979 ca22a1… github… <NA>    "A table pin… static   "pin"            https:…
    #>  4  4364 9ffbbd… shiny-… shiny-… ""            shiny    ""               https:…
    #>  5  4602 e21598… user-i… user-i… "Results pul… static   "pin"            https:…
    #>  6  4603 e7c266… group-… group-… "Results pul… static   "pin"            https:…
    #>  7  4630 f12eb8… top-5-… top-5-… ""            python-… ""               https:…
    #>  8  4631 68c9b2… top-5-… top-5-… ""            python-… ""               https:…
    #>  9  4650 ebdea3… reticu… reticu… ""            static   ""               https:…
    #> 10  4651 321bba… rsc_sp… RSC: S… ""            static   ""               https:…
    #> # … with 31 more rows, and 7 more variables: owner_guid <chr>,
    #> #   owner_username <chr>, owner_first_name <chr>, owner_last_name <chr>,
    #> #   tags <list>, created_time <dttm>, updated_time <dttm>
…
